<?xml version="1.0" encoding="UTF-8" standalone="no"?>
<svg
   xmlns:dc="http://purl.org/dc/elements/1.1/"
   xmlns:cc="http://creativecommons.org/ns#"
   xmlns:rdf="http://www.w3.org/1999/02/22-rdf-syntax-ns#"
   xmlns:svg="http://www.w3.org/2000/svg"
   xmlns="http://www.w3.org/2000/svg"
   xmlns:xlink="http://www.w3.org/1999/xlink"
   xmlns:sodipodi="http://sodipodi.sourceforge.net/DTD/sodipodi-0.dtd"
   xmlns:inkscape="http://www.inkscape.org/namespaces/inkscape"
   inkscape:version="1.0beta2 (2b71d25, 2019-12-03)"
   sodipodi:docname="logo-en.svg"
   xml:space="preserve"
   enable-background="new 0 0 215.231 53.868"
   viewBox="0 0 215.231 53.868"
   height="53.868px"
   width="215.231px"
   y="0px"
   x="0px"
   id="Layer_1"
   version="1.1"><metadata
   id="metadata634"><rdf:RDF><cc:Work
       rdf:about=""><dc:format>image/svg+xml</dc:format><dc:type
         rdf:resource="http://purl.org/dc/dcmitype/StillImage" /></cc:Work></rdf:RDF></metadata><defs
   id="defs632">
	
	
	
	
	
	

		
		
		
		
		
		
		
		
	
		
		
		
		
		
		
		
		
		
		
		
		
		
	</defs><sodipodi:namedview
   inkscape:current-layer="Layer_1"
   inkscape:window-maximized="0"
   inkscape:window-y="0"
   inkscape:window-x="0"
   inkscape:cy="24.997666"
   inkscape:cx="94.88038"
   inkscape:zoom="6.7137168"
   showgrid="false"
   id="namedview630"
   inkscape:window-height="1200"
   inkscape:window-width="1920"
   inkscape:pageshadow="2"
   inkscape:pageopacity="0"
   guidetolerance="10"
   gridtolerance="10"
   objecttolerance="10"
   borderopacity="1"
   inkscape:document-rotation="0"
   bordercolor="#666666"
   pagecolor="#ffffff" />
<path
   style="fill:#fbfcfc;fill-opacity:1"
   inkscape:connector-curvature="0"
   id="path357"
   d="m 70.792,20.679 h 4.875 v 0.732 h -0.134 c -1.503,0 -1.73,0.658 -1.73,1.562 v 4.682 c 0,4.194 -3.045,4.981 -5.282,4.981 -3.387,0 -5.531,-1.464 -5.531,-4.343 V 22.69 c 0,-0.943 -0.261,-1.28 -1.316,-1.28 h -0.32 v -0.732 h 5.886 v 0.732 h -0.316 c -0.795,0 -1.336,0.357 -1.336,1.28 v 5.603 c 0,2.295 1.688,3.084 3.399,3.084 2.466,0 3.691,-1.389 3.691,-3.459 v -4.569 c 0,-1.335 -0.378,-1.938 -1.545,-1.938 h -0.341 z"
   fill="#231F20" /><path
   style="fill:#fbfcfc;fill-opacity:1"
   inkscape:connector-curvature="0"
   id="path359"
   d="m 78.654,30.29 c 0,0.695 0.316,0.993 0.863,0.993 0.45,0 0.883,-0.28 1.429,-0.938 l 0.265,0.526 c -0.565,1.015 -1.694,1.711 -2.729,1.711 -1.276,0 -2.128,-0.718 -2.128,-2.332 V 25.739 H 75.36 v -0.493 c 1.128,-0.468 2.411,-1.842 2.747,-2.893 h 0.547 v 2.35 h 2.46 l -0.28,1.036 h -2.18 z"
   fill="#231F20" /><path
   style="fill:#fbfcfc;fill-opacity:1"
   inkscape:connector-curvature="0"
   id="path361"
   d="m 87.304,32.375 h -5.23 v -0.601 h 0.131 c 0.773,0 1.053,-0.338 1.053,-1.314 v -3.066 c 0,-0.846 -0.111,-1.037 -0.675,-1.261 l -0.509,-0.209 v -0.468 l 3.083,-1.166 h 0.398 v 2.105 h 0.037 c 0.694,-1.354 0.996,-1.899 1.637,-1.899 0.129,0 0.282,0.02 0.374,0.056 l 1.485,0.547 c -0.225,0.791 -0.525,1.464 -0.897,1.992 -0.588,-0.227 -1.283,-0.47 -1.53,-0.47 -0.375,0 -0.691,0.265 -1.106,0.846 v 3.048 c 0,0.904 0.282,1.26 1.261,1.26 h 0.488 z"
   fill="#231F20" /><path
   style="fill:#fbfcfc;fill-opacity:1"
   inkscape:connector-curvature="0"
   id="path363"
   d="m 97.269,30.194 c -1.049,1.482 -2.574,2.388 -4.024,2.388 -2.049,0 -3.44,-1.579 -3.44,-3.854 0,-2.483 1.677,-4.231 4.022,-4.231 1,0 1.79,0.32 2.371,0.903 1.111,1.109 0.585,2.163 1.244,2.5 v 0.545 h -5.21 c 0.15,1.562 1.202,2.746 2.313,2.746 0.693,0 1.371,-0.393 2.296,-1.355 z m -2.423,-2.481 c -0.019,-1.449 -0.526,-2.332 -1.338,-2.332 -0.77,0 -1.463,0.993 -1.334,2.332 z"
   fill="#231F20" /><path
   style="fill:#fbfcfc;fill-opacity:1"
   inkscape:connector-curvature="0"
   id="path365"
   d="m 106.354,30.57 c -0.866,1.315 -2.184,2.012 -3.836,2.012 -2.294,0 -3.951,-1.563 -3.951,-3.726 0,-2.462 2.128,-4.36 4.87,-4.36 1.618,0 2.842,0.677 2.842,1.598 0,0.563 -0.375,0.942 -0.962,0.942 -1.313,0 -1.593,-1.675 -2.685,-1.675 -0.941,0 -1.584,1.147 -1.584,2.838 0,2.032 0.963,3.403 2.354,3.403 0.848,0 1.635,-0.43 2.407,-1.334 z"
   fill="#231F20" /><path
   style="fill:#fbfcfc;fill-opacity:1"
   inkscape:connector-curvature="0"
   id="path367"
   d="m 110.433,30.477 c 0,1.184 0.322,1.297 0.979,1.297 h 0.188 v 0.6 h -4.76 v -0.6 h 0.269 c 0.96,0 1.033,-0.377 1.033,-1.374 v -8.218 c 0,-0.543 -0.096,-0.676 -0.603,-0.846 l -0.546,-0.187 v -0.434 l 2.992,-0.921 h 0.449 v 6.129 c 1.056,-0.732 2.406,-1.428 3.385,-1.428 1.378,0 2.053,1.108 2.053,3.328 v 2.485 c 0,1.11 0.129,1.466 0.846,1.466 h 0.186 v 0.6 h -4.438 v -0.6 h 0.15 c 0.79,0 0.96,-0.304 0.96,-1.374 v -2.839 c 0,-1.014 -0.47,-1.654 -1.222,-1.654 -0.51,0 -1.26,0.28 -1.92,0.713 v 3.857 z"
   fill="#231F20" /><path
   style="fill:#fbfcfc;fill-opacity:1"
   inkscape:connector-curvature="0"
   id="path369"
   d="m 121.005,30.29 c 0,0.695 0.318,0.993 0.862,0.993 0.453,0 0.882,-0.28 1.431,-0.938 l 0.264,0.526 c -0.565,1.015 -1.694,1.711 -2.729,1.711 -1.277,0 -2.125,-0.718 -2.125,-2.332 v -4.511 h -0.994 v -0.493 c 1.129,-0.468 2.406,-1.842 2.742,-2.893 h 0.549 v 2.35 h 2.459 l -0.277,1.036 h -2.182 z"
   fill="#231F20" /><polygon
   id="polygon371"
   points="29.093,0.659 29.747,0.146 30.611,0.251 31.124,0.905 35.321,1.94 36.078,1.597 36.892,1.907 37.233,2.666 41.055,4.67 41.872,4.521 42.588,5.014 42.738,5.834 45.974,8.698 46.802,8.75 47.378,9.401 47.329,10.231 49.781,13.781 50.574,14.029 50.981,14.801 50.734,15.594 52.266,19.635 52.979,20.065 53.186,20.91 52.757,21.621 53.276,25.91 53.864,26.498 53.864,27.372 53.276,27.958 52.757,32.243 53.188,32.954 52.981,33.801 52.268,34.229 50.736,38.27 50.983,39.063 50.576,39.836 49.784,40.083 47.329,43.637 47.378,44.469 46.802,45.12 45.974,45.168 42.742,48.032 42.592,48.85 41.877,49.346 41.059,49.194 37.232,51.202 36.892,51.961 36.078,52.27 35.32,51.928 31.129,52.963 30.616,53.618 29.751,53.721 29.098,53.208 24.776,53.208 24.122,53.721 23.258,53.618 22.745,52.963 18.549,51.928 17.792,52.27 16.978,51.961 16.636,51.202 12.814,49.198 11.997,49.348 11.28,48.852 11.131,48.034 7.895,45.168 7.066,45.12 6.488,44.469 6.537,43.637 4.086,40.088 3.292,39.84 2.887,39.069 3.135,38.274 1.602,34.233 0.891,33.805 0.682,32.958 1.112,32.249 0.591,27.958 0.003,27.372 0.003,26.498 0.591,25.91 1.111,21.627 0.68,20.914 0.889,20.069 1.6,19.639 3.133,15.598 2.885,14.805 3.29,14.033 4.083,13.785 6.538,10.231 6.488,9.401 7.066,8.75 7.895,8.698 11.126,5.836 11.275,5.018 11.993,4.523 12.81,4.674 16.636,2.666 16.978,1.907 17.792,1.597 18.549,1.94 22.741,0.906 23.252,0.251 24.118,0.146 24.772,0.659 "
   fill="#FFD300" /><g
   id="g469">
		<defs
   id="defs376">
			<polygon
   id="SVGID_1_"
   points="24.119,0.146 23.252,0.252 22.741,0.906 18.549,1.94 17.792,1.598 16.978,1.908 16.637,2.666 12.81,4.674 11.993,4.523 11.276,5.018 11.126,5.836 7.895,8.698 7.066,8.75 6.488,9.401 6.538,10.231 4.084,13.786 3.29,14.033 2.885,14.805 3.132,15.598 1.601,19.639 0.89,20.069 0.681,20.915 1.111,21.627 0.591,25.911 0.003,26.498 0.003,27.372 0.591,27.958 1.112,32.249 0.682,32.958 0.891,33.805 1.602,34.233 3.134,38.274 2.888,39.069 3.292,39.84 4.086,40.088 6.537,43.637 6.488,44.469 7.066,45.12 7.895,45.168 11.131,48.034 11.279,48.852 11.997,49.348 12.815,49.198 16.636,51.202 16.978,51.961 17.792,52.27 18.549,51.928 22.745,52.963 23.257,53.618 24.122,53.721 24.777,53.208 29.098,53.208 29.752,53.721 30.616,53.618 31.129,52.963 35.32,51.928 36.078,52.27 36.892,51.961 37.233,51.202 41.059,49.194 41.877,49.346 42.592,48.85 42.742,48.032 45.974,45.168 46.802,45.12 47.378,44.469 47.33,43.637 49.785,40.083 50.577,39.836 50.983,39.063 50.735,38.27 52.268,34.229 52.981,33.801 53.188,32.954 52.758,32.243 53.276,27.958 53.864,27.372 53.864,26.498 53.276,25.911 52.758,21.621 53.186,20.91 52.979,20.065 52.266,19.635 50.733,15.594 50.981,14.801 50.574,14.03 49.78,13.781 47.33,10.231 47.378,9.401 46.802,8.75 45.974,8.698 42.738,5.834 42.588,5.014 41.872,4.521 41.055,4.671 37.233,2.666 36.892,1.908 36.078,1.598 35.321,1.94 31.124,0.905 30.611,0.252 29.747,0.146 29.093,0.659 24.772,0.659 " />
		</defs>
		<clipPath
   id="SVGID_2_">
			<use
   xlink:href="#SVGID_1_"
   overflow="visible"
   id="use378"
   x="0"
   y="0"
   width="100%"
   height="100%" />
		</clipPath>
		<path
   clip-path="url(#SVGID_2_)"
   fill="#FFFFFF"
   d="m 31.581,3.453 c 0.21,0.127 0.561,0.311 0.827,0.375 0.303,0.073 0.637,0.092 0.724,-0.261 C 33.216,3.221 32.785,3.082 32.379,2.844 31.972,2.606 31.583,2.27 31.76,1.545 c 0.199,-0.806 1.102,-0.982 1.811,-0.808 0.417,0.103 0.783,0.294 1.132,0.536 l -0.445,0.624 c -0.227,-0.152 -0.553,-0.301 -0.753,-0.35 -0.467,-0.114 -0.681,0.011 -0.739,0.25 -0.036,0.152 0.04,0.308 0.451,0.507 0.906,0.451 1.071,0.899 0.944,1.425 C 33.934,4.653 33.105,4.825 32.271,4.62 31.882,4.526 31.496,4.338 31.158,4.123 Z"
   id="path381"
   inkscape:connector-curvature="0" />
		<path
   clip-path="url(#SVGID_2_)"
   fill="none"
   stroke="#FFFFFF"
   stroke-width="0.4"
   d="m 31.581,3.453 c 0.21,0.127 0.561,0.311 0.827,0.375 0.303,0.073 0.637,0.092 0.724,-0.261 C 33.216,3.221 32.785,3.082 32.379,2.844 31.972,2.606 31.583,2.27 31.76,1.545 c 0.199,-0.806 1.102,-0.982 1.811,-0.808 0.417,0.103 0.783,0.294 1.132,0.536 l -0.445,0.624 c -0.227,-0.152 -0.553,-0.301 -0.753,-0.35 -0.467,-0.114 -0.681,0.011 -0.739,0.25 -0.036,0.152 0.04,0.308 0.451,0.507 0.906,0.451 1.071,0.899 0.944,1.425 C 33.934,4.653 33.105,4.825 32.271,4.62 31.882,4.526 31.496,4.338 31.158,4.123 Z"
   id="path383"
   inkscape:connector-curvature="0" />
		<path
   clip-path="url(#SVGID_2_)"
   fill="#FFFFFF"
   d="m 39.505,2.99 c 1.16,0.608 1.413,1.78 0.894,2.772 -0.522,0.994 -1.631,1.449 -2.79,0.842 C 36.444,5.993 36.19,4.821 36.711,3.827 37.232,2.835 38.341,2.379 39.505,2.99 M 37.978,5.889 C 38.49,6.158 39.088,6.03 39.48,5.282 39.874,4.529 39.641,3.966 39.128,3.697 38.62,3.43 38.025,3.557 37.631,4.308 37.237,5.059 37.469,5.623 37.978,5.889"
   id="path385"
   inkscape:connector-curvature="0" />
		<path
   clip-path="url(#SVGID_2_)"
   fill="none"
   stroke="#FFFFFF"
   stroke-width="0.4"
   d="m 39.505,2.99 c 1.16,0.608 1.413,1.78 0.894,2.772 -0.522,0.994 -1.631,1.449 -2.79,0.842 C 36.444,5.993 36.19,4.821 36.711,3.827 37.232,2.835 38.341,2.379 39.505,2.99 Z M 37.978,5.889 C 38.49,6.158 39.088,6.03 39.48,5.282 39.874,4.529 39.641,3.966 39.128,3.697 38.62,3.43 38.025,3.557 37.631,4.308 37.237,5.059 37.469,5.623 37.978,5.889 Z"
   id="path387"
   inkscape:connector-curvature="0" />
		<path
   clip-path="url(#SVGID_2_)"
   fill="#FFFFFF"
   d="m 43.968,5.875 -2.506,3.072 c 0.658,0.534 1.285,1.098 1.881,1.7 l 0.606,-0.602 C 43.558,9.65 43.151,9.271 42.732,8.9 l 2.04,-2.345"
   id="path389"
   inkscape:connector-curvature="0" />
		<path
   clip-path="url(#SVGID_2_)"
   fill="none"
   stroke="#FFFFFF"
   stroke-width="0.4"
   d="m 43.968,5.875 -2.506,3.072 c 0.658,0.534 1.285,1.098 1.881,1.7 l 0.606,-0.602 C 43.558,9.65 43.151,9.271 42.732,8.9 l 2.04,-2.345"
   id="path391"
   inkscape:connector-curvature="0" />
		<path
   clip-path="url(#SVGID_2_)"
   fill="#FFFFFF"
   d="m 52.446,17.833 -3.75,1.332 c -0.1,-0.281 -0.214,-0.578 -0.329,-0.859 l 3.702,-1.479"
   id="path393"
   inkscape:connector-curvature="0" />
		<path
   clip-path="url(#SVGID_2_)"
   fill="none"
   stroke="#FFFFFF"
   stroke-width="0.4"
   d="m 52.446,17.833 -3.75,1.332 c -0.1,-0.281 -0.214,-0.578 -0.329,-0.859 l 3.702,-1.479"
   id="path395"
   inkscape:connector-curvature="0" />
		<path
   clip-path="url(#SVGID_2_)"
   fill="#FFFFFF"
   d="m 53.927,24.704 -3.066,-0.619 -0.002,-0.01 2.837,-1.293 -0.179,-1.041 -3.707,1.934 c 0.054,0.361 0.093,0.719 0.128,1.08 l 4.049,0.953"
   id="path397"
   inkscape:connector-curvature="0" />
		<path
   clip-path="url(#SVGID_2_)"
   fill="none"
   stroke="#FFFFFF"
   stroke-width="0.4"
   d="m 53.927,24.704 -3.066,-0.619 -0.002,-0.01 2.837,-1.293 -0.179,-1.041 -3.707,1.934 c 0.054,0.361 0.093,0.719 0.128,1.08 l 4.049,0.953"
   id="path399"
   inkscape:connector-curvature="0" />
		<path
   clip-path="url(#SVGID_2_)"
   fill="#FFFFFF"
   d="m 50.804,28.725 c -0.102,0.225 -0.239,0.594 -0.272,0.865 -0.037,0.311 -0.017,0.645 0.344,0.688 0.355,0.043 0.442,-0.402 0.627,-0.836 0.189,-0.43 0.474,-0.857 1.218,-0.768 0.823,0.098 1.106,0.975 1.019,1.699 -0.051,0.43 -0.2,0.812 -0.395,1.189 l -0.676,-0.367 c 0.125,-0.242 0.235,-0.584 0.258,-0.791 0.057,-0.475 -0.095,-0.674 -0.336,-0.701 -0.155,-0.02 -0.302,0.074 -0.45,0.51 -0.34,0.951 -0.764,1.17 -1.3,1.105 -0.945,-0.113 -1.216,-0.916 -1.114,-1.768 0.048,-0.398 0.185,-0.803 0.359,-1.162 z"
   id="path401"
   inkscape:connector-curvature="0" />
		<path
   clip-path="url(#SVGID_2_)"
   fill="none"
   stroke="#FFFFFF"
   stroke-width="0.4"
   d="m 50.804,28.725 c -0.102,0.225 -0.239,0.594 -0.272,0.865 -0.037,0.311 -0.017,0.645 0.344,0.688 0.355,0.043 0.442,-0.402 0.627,-0.836 0.189,-0.43 0.474,-0.857 1.218,-0.768 0.823,0.098 1.106,0.975 1.019,1.699 -0.051,0.43 -0.2,0.812 -0.395,1.189 l -0.676,-0.367 c 0.125,-0.242 0.235,-0.584 0.258,-0.791 0.057,-0.475 -0.095,-0.674 -0.336,-0.701 -0.155,-0.02 -0.302,0.074 -0.45,0.51 -0.34,0.951 -0.764,1.17 -1.3,1.105 -0.945,-0.113 -1.216,-0.916 -1.114,-1.768 0.048,-0.398 0.185,-0.803 0.359,-1.162 z"
   id="path403"
   inkscape:connector-curvature="0" />
		<path
   clip-path="url(#SVGID_2_)"
   fill="#FFFFFF"
   d="m 51.666,37.989 -0.917,-0.408 c 0.134,-0.297 0.264,-0.604 0.385,-0.91 l -2.761,-1.115 c 0.113,-0.281 0.224,-0.58 0.323,-0.861 l 2.808,1.006 c 0.107,-0.305 0.213,-0.611 0.309,-0.918 l 0.951,0.299"
   id="path405"
   inkscape:connector-curvature="0" />
		<path
   clip-path="url(#SVGID_2_)"
   fill="none"
   stroke="#FFFFFF"
   stroke-width="0.4"
   d="m 51.666,37.989 -0.917,-0.408 c 0.134,-0.297 0.264,-0.604 0.385,-0.91 l -2.761,-1.115 c 0.113,-0.281 0.224,-0.58 0.323,-0.861 l 2.808,1.006 c 0.107,-0.305 0.213,-0.611 0.309,-0.918 l 0.951,0.299"
   id="path407"
   inkscape:connector-curvature="0" />
		<path
   clip-path="url(#SVGID_2_)"
   fill="#FFFFFF"
   d="m 48.907,42.766 -3.224,-2.332 c 0.175,-0.244 0.356,-0.51 0.521,-0.76 l 3.318,2.207"
   id="path409"
   inkscape:connector-curvature="0" />
		<path
   clip-path="url(#SVGID_2_)"
   fill="none"
   stroke="#FFFFFF"
   stroke-width="0.4"
   d="m 48.907,42.766 -3.224,-2.332 c 0.175,-0.244 0.356,-0.51 0.521,-0.76 l 3.318,2.207"
   id="path411"
   inkscape:connector-curvature="0" />
		<path
   clip-path="url(#SVGID_2_)"
   fill="#FFFFFF"
   d="m 43.689,48.213 -0.621,-0.781 c 0.258,-0.205 0.514,-0.412 0.765,-0.627 l -1.926,-2.273 c 0.231,-0.195 0.467,-0.408 0.688,-0.611 l 2.015,2.195 c 0.24,-0.219 0.474,-0.441 0.7,-0.67 l 0.703,0.711"
   id="path413"
   inkscape:connector-curvature="0" />
		<path
   clip-path="url(#SVGID_2_)"
   fill="none"
   stroke="#FFFFFF"
   stroke-width="0.4"
   d="m 43.689,48.213 -0.621,-0.781 c 0.258,-0.205 0.514,-0.412 0.765,-0.627 l -1.926,-2.273 c 0.231,-0.195 0.467,-0.408 0.688,-0.611 l 2.015,2.195 c 0.24,-0.219 0.474,-0.441 0.7,-0.67 l 0.703,0.711"
   id="path415"
   inkscape:connector-curvature="0" />
		<path
   clip-path="url(#SVGID_2_)"
   fill="#FFFFFF"
   d="m 39.034,51.172 -1.777,-3.57 c 0.27,-0.137 0.55,-0.283 0.814,-0.432 l 1.916,3.498"
   id="path417"
   inkscape:connector-curvature="0" />
		<path
   clip-path="url(#SVGID_2_)"
   fill="none"
   stroke="#FFFFFF"
   stroke-width="0.4"
   d="m 39.034,51.172 -1.777,-3.57 c 0.27,-0.137 0.55,-0.283 0.814,-0.432 l 1.916,3.498"
   id="path419"
   inkscape:connector-curvature="0" />
		<path
   clip-path="url(#SVGID_2_)"
   fill="#FFFFFF"
   d="M 31.457,53.643 30.77,49.725 c 0.779,-0.131 1.553,-0.303 2.315,-0.516 l 0.294,1.008 c 0.415,-0.115 0.826,-0.244 1.235,-0.383 l 0.202,-0.777 0.599,1.346 -0.784,2.504 z"
   id="path421"
   inkscape:connector-curvature="0" />
		<path
   clip-path="url(#SVGID_2_)"
   fill="none"
   stroke="#FFFFFF"
   stroke-width="0.4"
   d="M 31.457,53.643 30.77,49.725 c 0.779,-0.131 1.553,-0.303 2.315,-0.516 l 0.294,1.008 c 0.415,-0.115 0.826,-0.244 1.235,-0.383 l 0.202,-0.777 0.599,1.346 -0.784,2.504 z"
   id="path423"
   inkscape:connector-curvature="0" />
		<path
   clip-path="url(#SVGID_2_)"
   fill="#FFFFFF"
   d="m 19.949,53.106 1.035,-3.848 c 0.292,0.078 0.602,0.15 0.898,0.217 l -0.884,3.891"
   id="path425"
   inkscape:connector-curvature="0" />
		<path
   clip-path="url(#SVGID_2_)"
   fill="none"
   stroke="#FFFFFF"
   stroke-width="0.4"
   d="m 19.949,53.106 1.035,-3.848 c 0.292,0.078 0.602,0.15 0.898,0.217 l -0.884,3.891"
   id="path427"
   inkscape:connector-curvature="0" />
		<path
   clip-path="url(#SVGID_2_)"
   fill="#FFFFFF"
   d="m 15.452,51.469 1.699,-3.598 c -0.766,-0.359 -1.512,-0.758 -2.235,-1.197 l -0.444,0.73 c 0.476,0.289 0.961,0.561 1.456,0.816 L 14.494,51"
   id="path429"
   inkscape:connector-curvature="0" />
		<path
   clip-path="url(#SVGID_2_)"
   fill="none"
   stroke="#FFFFFF"
   stroke-width="0.4"
   d="m 15.452,51.469 1.699,-3.598 c -0.766,-0.359 -1.512,-0.758 -2.235,-1.197 l -0.444,0.73 c 0.476,0.289 0.961,0.561 1.456,0.816 L 14.494,51"
   id="path431"
   inkscape:connector-curvature="0" />
		<path
   clip-path="url(#SVGID_2_)"
   fill="#FFFFFF"
   d="m 9.917,48.002 2.504,-3.082 c -0.657,-0.531 -1.286,-1.098 -1.882,-1.699 l -0.606,0.604 c 0.393,0.396 0.799,0.775 1.218,1.143 l -2.045,2.338"
   id="path433"
   inkscape:connector-curvature="0" />
		<path
   clip-path="url(#SVGID_2_)"
   fill="none"
   stroke="#FFFFFF"
   stroke-width="0.4"
   d="m 9.917,48.002 2.504,-3.082 c -0.657,-0.531 -1.286,-1.098 -1.882,-1.699 l -0.606,0.604 c 0.393,0.396 0.799,0.775 1.218,1.143 l -2.045,2.338"
   id="path435"
   inkscape:connector-curvature="0" />
		<path
   clip-path="url(#SVGID_2_)"
   fill="#FFFFFF"
   d="m 3.561,40.618 4.028,-1.043 c 0.198,0.303 0.403,0.602 0.615,0.895 L 5.826,43.9 5.178,43.068 7.09,40.607 7.084,40.599 4.085,41.48"
   id="path437"
   inkscape:connector-curvature="0" />
		<path
   clip-path="url(#SVGID_2_)"
   fill="none"
   stroke="#FFFFFF"
   stroke-width="0.4"
   d="m 3.561,40.618 4.028,-1.043 c 0.198,0.303 0.403,0.602 0.615,0.895 L 5.826,43.9 5.178,43.068 7.09,40.607 7.084,40.599 4.085,41.48"
   id="path439"
   inkscape:connector-curvature="0" />
		<path
   clip-path="url(#SVGID_2_)"
   fill="#FFFFFF"
   d="M 4.975,36.465 C 4.96,36.219 4.911,35.824 4.813,35.57 4.702,35.277 4.527,34.992 4.189,35.121 3.855,35.248 3.986,35.683 4.021,36.152 4.058,36.623 4.002,37.132 3.304,37.398 2.528,37.695 1.871,37.05 1.61,36.371 1.456,35.969 1.407,35.559 1.407,35.133 l 0.768,0.014 c 0.003,0.271 0.065,0.623 0.139,0.818 0.17,0.447 0.396,0.553 0.625,0.463 C 3.085,36.373 3.17,36.223 3.1,35.77 2.956,34.768 3.23,34.379 3.736,34.186 c 0.89,-0.34 1.5,0.242 1.807,1.045 0.144,0.375 0.209,0.797 0.226,1.197 z"
   id="path441"
   inkscape:connector-curvature="0" />
		<path
   clip-path="url(#SVGID_2_)"
   fill="none"
   stroke="#FFFFFF"
   stroke-width="0.4"
   d="M 4.975,36.465 C 4.96,36.219 4.911,35.824 4.813,35.57 4.702,35.277 4.527,34.992 4.189,35.121 3.855,35.248 3.986,35.683 4.021,36.152 4.058,36.623 4.002,37.132 3.304,37.398 2.528,37.695 1.871,37.05 1.61,36.371 1.456,35.969 1.407,35.559 1.407,35.133 l 0.768,0.014 c 0.003,0.271 0.065,0.623 0.139,0.818 0.17,0.447 0.396,0.553 0.625,0.463 C 3.085,36.373 3.17,36.223 3.1,35.77 2.956,34.768 3.23,34.379 3.736,34.186 c 0.89,-0.34 1.5,0.242 1.807,1.045 0.144,0.375 0.209,0.797 0.226,1.197 z"
   id="path443"
   inkscape:connector-curvature="0" />
		<path
   clip-path="url(#SVGID_2_)"
   fill="#FFFFFF"
   d="m -0.092,28.651 0.99,-0.062 c 0.021,0.326 0.049,0.656 0.084,0.986 l 2.963,-0.299 c 0.032,0.299 0.072,0.617 0.115,0.914 l -2.953,0.416 c 0.045,0.318 0.097,0.639 0.154,0.955 l -0.985,0.178"
   id="path445"
   inkscape:connector-curvature="0" />
		<path
   clip-path="url(#SVGID_2_)"
   fill="none"
   stroke="#FFFFFF"
   stroke-width="0.4"
   d="m -0.092,28.651 0.99,-0.062 c 0.021,0.326 0.049,0.656 0.084,0.986 l 2.963,-0.299 c 0.032,0.299 0.072,0.617 0.115,0.914 l -2.953,0.416 c 0.045,0.318 0.097,0.639 0.154,0.955 l -0.985,0.178"
   id="path447"
   inkscape:connector-curvature="0" />
		<path
   clip-path="url(#SVGID_2_)"
   fill="#FFFFFF"
   d="m 4.277,22.413 c -0.087,0.354 -0.14,0.687 -0.19,1.033 0,0 -0.612,0.166 -0.897,0.272 -0.346,0.125 -0.67,0.33 -0.72,0.595 -0.01,0.053 -0.013,0.116 -0.016,0.149 l 1.493,0.146 c -0.03,0.305 -0.055,0.61 -0.073,0.916 l -3.83,-0.218 c 0.033,-0.545 0.083,-1.084 0.147,-1.625 0.094,-0.768 0.471,-1.399 1.168,-1.348 0.572,0.039 0.935,0.426 0.947,1.039 l 0.018,0.004 c 0.15,-0.176 0.283,-0.244 0.525,-0.381 0.379,-0.22 1.428,-0.582 1.428,-0.582"
   id="path449"
   inkscape:connector-curvature="0" />
		<path
   clip-path="url(#SVGID_2_)"
   fill="none"
   stroke="#FFFFFF"
   stroke-width="0.4"
   d="m 4.277,22.413 c -0.087,0.354 -0.14,0.687 -0.19,1.033 0,0 -0.612,0.166 -0.897,0.272 -0.346,0.125 -0.67,0.33 -0.72,0.595 -0.01,0.053 -0.013,0.116 -0.016,0.149 l 1.493,0.146 c -0.03,0.305 -0.055,0.61 -0.073,0.916 l -3.83,-0.218 c 0.033,-0.545 0.083,-1.084 0.147,-1.625 0.094,-0.768 0.471,-1.399 1.168,-1.348 0.572,0.039 0.935,0.426 0.947,1.039 l 0.018,0.004 c 0.15,-0.176 0.283,-0.244 0.525,-0.381 0.379,-0.22 1.428,-0.582 1.428,-0.582 z"
   id="path451"
   inkscape:connector-curvature="0" />
		<path
   clip-path="url(#SVGID_2_)"
   fill="#FFFFFF"
   d="m 1.813,16.792 4.303,0.117 C 5.962,17.228 5.815,17.554 5.675,17.878 L 4.77,17.836 c -0.172,0.416 -0.332,0.838 -0.479,1.266 l 0.707,0.57 C 4.89,19.996 4.79,20.324 4.697,20.656 L 1.438,17.779"
   id="path453"
   inkscape:connector-curvature="0" />
		<path
   clip-path="url(#SVGID_2_)"
   fill="none"
   stroke="#FFFFFF"
   stroke-width="0.4"
   d="m 1.813,16.792 4.303,0.117 C 5.962,17.228 5.815,17.554 5.675,17.878 L 4.77,17.836 c -0.172,0.416 -0.332,0.838 -0.479,1.266 l 0.707,0.57 C 4.89,19.996 4.79,20.324 4.697,20.656 L 1.438,17.779"
   id="path455"
   inkscape:connector-curvature="0" />
		<path
   clip-path="url(#SVGID_2_)"
   fill="#FFFFFF"
   d="M 8.445,7.143 11.353,8.116 9.674,6.057 10.465,5.434 12.837,8.625 C 12.566,8.834 12.299,9.049 12.038,9.27 l -2.806,-0.928 1.773,1.854 c -0.202,0.193 -0.4,0.386 -0.595,0.588 L 7.563,8.008"
   id="path457"
   inkscape:connector-curvature="0" />
		<path
   clip-path="url(#SVGID_2_)"
   fill="none"
   stroke="#FFFFFF"
   stroke-width="0.4"
   d="M 8.445,7.143 11.353,8.116 9.674,6.057 10.465,5.434 12.837,8.625 C 12.566,8.834 12.299,9.049 12.038,9.27 l -2.806,-0.928 1.773,1.854 c -0.202,0.193 -0.4,0.386 -0.595,0.588 L 7.563,8.008"
   id="path459"
   inkscape:connector-curvature="0" />
		<path
   clip-path="url(#SVGID_2_)"
   fill="#FFFFFF"
   d="m 14.363,2.99 c 1.161,-0.61 2.269,-0.153 2.791,0.839 0.52,0.994 0.268,2.164 -0.893,2.775 C 15.096,7.213 13.988,6.758 13.467,5.764 12.945,4.772 13.199,3.601 14.363,2.99 m 1.521,2.905 C 16.397,5.624 16.63,5.061 16.236,4.311 15.841,3.561 15.245,3.432 14.733,3.703 c -0.509,0.266 -0.742,0.83 -0.348,1.581 0.393,0.748 0.989,0.877 1.499,0.611"
   id="path461"
   inkscape:connector-curvature="0" />
		<path
   clip-path="url(#SVGID_2_)"
   fill="none"
   stroke="#FFFFFF"
   stroke-width="0.4"
   d="m 14.363,2.99 c 1.161,-0.61 2.269,-0.153 2.791,0.839 0.52,0.994 0.268,2.164 -0.893,2.775 C 15.096,7.213 13.988,6.758 13.467,5.764 12.945,4.772 13.199,3.601 14.363,2.99 Z m 1.521,2.905 C 16.397,5.624 16.63,5.061 16.236,4.311 15.841,3.561 15.245,3.432 14.733,3.703 c -0.509,0.266 -0.742,0.83 -0.348,1.581 0.393,0.748 0.989,0.877 1.499,0.611 z"
   id="path463"
   inkscape:connector-curvature="0" />
		<path
   clip-path="url(#SVGID_2_)"
   fill="#FFFFFF"
   d="M 20.133,3.984 C 20.378,3.997 20.774,3.997 21.039,3.932 21.343,3.856 21.647,3.718 21.561,3.364 21.474,3.019 21.027,3.095 20.557,3.075 20.086,3.054 19.586,2.936 19.405,2.212 19.205,1.405 19.925,0.831 20.633,0.653 21.05,0.55 21.463,0.55 21.884,0.602 l -0.103,0.76 c -0.273,-0.029 -0.629,-0.009 -0.829,0.04 -0.466,0.116 -0.598,0.327 -0.539,0.564 0.037,0.152 0.179,0.254 0.635,0.24 1.011,-0.022 1.365,0.297 1.496,0.823 0.23,0.925 -0.423,1.461 -1.256,1.669 -0.39,0.096 -0.818,0.109 -1.216,0.076 z"
   id="path465"
   inkscape:connector-curvature="0" />
		<path
   clip-path="url(#SVGID_2_)"
   fill="none"
   stroke="#FFFFFF"
   stroke-width="0.4"
   d="M 20.133,3.984 C 20.378,3.997 20.774,3.997 21.039,3.932 21.343,3.856 21.647,3.718 21.561,3.364 21.474,3.019 21.027,3.095 20.557,3.075 20.086,3.054 19.586,2.936 19.405,2.212 19.205,1.405 19.925,0.831 20.633,0.653 21.05,0.55 21.463,0.55 21.884,0.602 l -0.103,0.76 c -0.273,-0.029 -0.629,-0.009 -0.829,0.04 -0.466,0.116 -0.598,0.327 -0.539,0.564 0.037,0.152 0.179,0.254 0.635,0.24 1.011,-0.022 1.365,0.297 1.496,0.823 0.23,0.925 -0.423,1.461 -1.256,1.669 -0.39,0.096 -0.818,0.109 -1.216,0.076 z"
   id="path467"
   inkscape:connector-curvature="0" />
	</g><g
   id="g543">
		<defs
   id="defs472">
			<path
   id="SVGID_3_"
   d="M 0,26.934 C 0,41.809 12.059,53.868 26.935,53.868 41.81,53.868 53.867,41.809 53.867,26.934 53.867,12.061 41.81,0 26.935,0 12.059,0 0,12.061 0,26.934"
   inkscape:connector-curvature="0" />
		</defs>
		<clipPath
   id="SVGID_4_">
			<use
   xlink:href="#SVGID_3_"
   overflow="visible"
   id="use474"
   x="0"
   y="0"
   width="100%"
   height="100%" />
		</clipPath>
		<polyline
   clip-path="url(#SVGID_4_)"
   fill="#231F20"
   points="24.078,-0.077 26.935,16.16 29.791,-0.077   "
   id="polyline477" />
		<polyline
   clip-path="url(#SVGID_4_)"
   fill="#231F20"
   points="30.628,0.024 29.514,16.473 36.174,1.391   "
   id="polyline479" />
		<polyline
   clip-path="url(#SVGID_4_)"
   fill="#231F20"
   points="36.957,1.688 31.941,17.396 42.016,4.343   "
   id="polyline481" />
		<polyline
   clip-path="url(#SVGID_4_)"
   fill="#231F20"
   points="42.708,4.823 34.08,18.87 46.983,8.612   "
   id="polyline483" />
		<polyline
   clip-path="url(#SVGID_4_)"
   fill="#231F20"
   points="47.54,9.239 35.802,20.814 50.786,13.939   "
   id="polyline485" />
		<polyline
   clip-path="url(#SVGID_4_)"
   fill="#231F20"
   points="51.175,14.686 37.008,23.112 53.201,20.026   "
   id="polyline487" />
		<polyline
   clip-path="url(#SVGID_4_)"
   fill="#231F20"
   points="53.405,20.844 37.631,25.637 54.092,26.514   "
   id="polyline489" />
		<polyline
   clip-path="url(#SVGID_4_)"
   fill="#231F20"
   points="54.092,27.354 37.631,28.233 53.405,33.026   "
   id="polyline491" />
		<polyline
   clip-path="url(#SVGID_4_)"
   fill="#231F20"
   points="53.202,33.84 37.009,30.754 51.176,39.184   "
   id="polyline493" />
		<polyline
   clip-path="url(#SVGID_4_)"
   fill="#231F20"
   points="50.786,39.93 35.802,33.055 47.54,44.629   "
   id="polyline495" />
		<polyline
   clip-path="url(#SVGID_4_)"
   fill="#231F20"
   points="46.983,45.258 34.08,34.997 42.708,49.045   "
   id="polyline497" />
		<polyline
   clip-path="url(#SVGID_4_)"
   fill="#231F20"
   points="42.016,49.526 31.941,36.475 36.957,52.18   "
   id="polyline499" />
		<polyline
   clip-path="url(#SVGID_4_)"
   fill="#231F20"
   points="29.791,53.944 26.935,37.708 24.078,53.944   "
   id="polyline501" />
		<polyline
   clip-path="url(#SVGID_4_)"
   fill="#231F20"
   points="23.242,53.844 24.355,37.395 17.695,52.475   "
   id="polyline503" />
		<polyline
   clip-path="url(#SVGID_4_)"
   fill="#231F20"
   points="16.913,52.18 21.929,36.475 11.854,49.526   "
   id="polyline505" />
		<polyline
   clip-path="url(#SVGID_4_)"
   fill="#231F20"
   points="11.16,49.045 19.79,34.997 6.884,45.258   "
   id="polyline507" />
		<polyline
   clip-path="url(#SVGID_4_)"
   fill="#231F20"
   points="6.33,44.629 18.068,33.055 3.083,39.93   "
   id="polyline509" />
		<polyline
   clip-path="url(#SVGID_4_)"
   fill="#231F20"
   points="2.692,39.184 16.86,30.754 0.666,33.84   "
   id="polyline511" />
		<polyline
   clip-path="url(#SVGID_4_)"
   fill="#231F20"
   points="0.464,33.026 16.239,28.233 -0.225,27.354   "
   id="polyline513" />
		<polyline
   clip-path="url(#SVGID_4_)"
   fill="#231F20"
   points="-0.224,26.514 16.239,25.637 0.465,20.844   "
   id="polyline515" />
		<polyline
   clip-path="url(#SVGID_4_)"
   fill="#231F20"
   points="0.666,20.026 16.86,23.112 2.692,14.686   "
   id="polyline517" />
		<polyline
   clip-path="url(#SVGID_4_)"
   fill="#231F20"
   points="3.083,13.94 18.068,20.815 6.33,9.239   "
   id="polyline519" />
		<polyline
   clip-path="url(#SVGID_4_)"
   fill="#231F20"
   points="6.884,8.612 19.79,18.87 11.16,4.823   "
   id="polyline521" />
		<polyline
   clip-path="url(#SVGID_4_)"
   fill="#231F20"
   points="11.854,4.344 21.929,17.395 16.913,1.688   "
   id="polyline523" />
		<polyline
   clip-path="url(#SVGID_4_)"
   fill="#231F20"
   points="17.696,1.392 24.355,16.474 23.242,0.024   "
   id="polyline525" />
		<path
   clip-path="url(#SVGID_4_)"
   fill="#FFFFFF"
   d="m 43.968,5.875 -2.506,3.072 c 0.658,0.534 1.285,1.098 1.881,1.7 l 0.606,-0.602 C 43.558,9.65 43.151,9.271 42.732,8.9 l 2.04,-2.345"
   id="path527"
   inkscape:connector-curvature="0" />
		<path
   clip-path="url(#SVGID_4_)"
   fill="#FFFFFF"
   d="m 52.446,17.833 -3.75,1.332 c -0.1,-0.281 -0.214,-0.578 -0.329,-0.859 l 3.702,-1.479"
   id="path529"
   inkscape:connector-curvature="0" />
		<path
   clip-path="url(#SVGID_4_)"
   fill="#FFFFFF"
   d="m 53.927,24.704 -3.066,-0.619 -0.002,-0.01 2.837,-1.293 -0.179,-1.041 -3.707,1.934 c 0.054,0.361 0.093,0.719 0.128,1.08 l 4.049,0.953"
   id="path531"
   inkscape:connector-curvature="0" />
		<path
   clip-path="url(#SVGID_4_)"
   fill="#FFFFFF"
   d="m 51.666,37.989 -0.917,-0.408 c 0.134,-0.297 0.264,-0.604 0.385,-0.91 l -2.761,-1.115 c 0.113,-0.281 0.224,-0.58 0.323,-0.861 l 2.808,1.006 c 0.107,-0.305 0.213,-0.611 0.309,-0.918 l 0.951,0.299"
   id="path533"
   inkscape:connector-curvature="0" />
		<path
   clip-path="url(#SVGID_4_)"
   fill="#FFFFFF"
   d="m 48.907,42.766 -3.224,-2.332 c 0.175,-0.244 0.356,-0.51 0.521,-0.76 l 3.318,2.207"
   id="path535"
   inkscape:connector-curvature="0" />
		<path
   clip-path="url(#SVGID_4_)"
   fill="#FFFFFF"
   d="m 43.689,48.213 -0.621,-0.781 c 0.258,-0.205 0.514,-0.412 0.765,-0.627 l -1.926,-2.273 c 0.231,-0.195 0.467,-0.408 0.688,-0.611 l 2.015,2.195 c 0.24,-0.219 0.474,-0.441 0.7,-0.67 l 0.703,0.711"
   id="path537"
   inkscape:connector-curvature="0" />
		<path
   clip-path="url(#SVGID_4_)"
   fill="#FFFFFF"
   d="m 39.034,51.172 -1.777,-3.57 c 0.27,-0.137 0.55,-0.283 0.814,-0.432 l 1.916,3.498"
   id="path539"
   inkscape:connector-curvature="0" />
		<polyline
   clip-path="url(#SVGID_4_)"
   fill="#231F20"
   points="36.174,52.475 29.514,37.395 30.628,53.844   "
   id="polyline541" />
	</g><g
   id="g553">
		<defs
   id="defs546">
			<path
   id="SVGID_5_"
   d="m 30.613,53.618 c 1.894,-0.258 3.725,-0.713 5.472,-1.345 L 29.514,37.395 Z"
   inkscape:connector-curvature="0" />
		</defs>
		<clipPath
   id="SVGID_6_">
			<use
   xlink:href="#SVGID_5_"
   overflow="visible"
   id="use548"
   x="0"
   y="0"
   width="100%"
   height="100%" />
		</clipPath>
		<path
   clip-path="url(#SVGID_6_)"
   fill="#FFFFFF"
   d="m 34.632,52.907 0.783,-2.504 -0.599,-1.346 -0.202,0.777 c -0.409,0.139 -0.82,0.268 -1.235,0.383 l -0.293,-1.008 c -0.763,0.213 -1.537,0.385 -2.316,0.516 l 0.141,0.842 c 0.478,-0.08 0.954,-0.174 1.486,-0.299 l 0.168,0.664 c -0.5,0.115 -0.941,0.205 -1.384,0.283 l 0.125,0.758 c 0.468,-0.08 0.919,-0.174 1.444,-0.293 l 0.162,0.648 c -0.579,0.135 -1.096,0.238 -1.616,0.326 l 0.161,0.988 m 2.484,-1.327 -0.369,-1.352 c 0.266,-0.074 0.563,-0.162 0.84,-0.248 l -0.422,1.588 z"
   id="path551"
   inkscape:connector-curvature="0" />
	</g><g
   id="g597">
		<defs
   id="defs556">
			<path
   id="SVGID_7_"
   d="M 0,26.934 C 0,41.809 12.059,53.868 26.935,53.868 41.81,53.868 53.867,41.809 53.867,26.934 53.867,12.061 41.81,0 26.935,0 12.059,0 0,12.061 0,26.934"
   inkscape:connector-curvature="0" />
		</defs>
		<clipPath
   id="SVGID_8_">
			<use
   xlink:href="#SVGID_7_"
   overflow="visible"
   id="use558"
   x="0"
   y="0"
   width="100%"
   height="100%" />
		</clipPath>
		<path
   clip-path="url(#SVGID_8_)"
   fill="#FFFFFF"
   d="m 19.949,53.106 1.035,-3.848 c 0.292,0.078 0.602,0.15 0.898,0.217 l -0.884,3.891"
   id="path561"
   inkscape:connector-curvature="0" />
		<path
   clip-path="url(#SVGID_8_)"
   fill="#FFFFFF"
   d="m 15.452,51.469 1.699,-3.598 c -0.766,-0.359 -1.512,-0.758 -2.235,-1.197 l -0.444,0.73 c 0.476,0.289 0.961,0.561 1.456,0.816 L 14.494,51"
   id="path563"
   inkscape:connector-curvature="0" />
		<path
   clip-path="url(#SVGID_8_)"
   fill="#FFFFFF"
   d="m 9.917,48.002 2.504,-3.082 c -0.657,-0.531 -1.286,-1.098 -1.882,-1.699 l -0.606,0.604 c 0.393,0.396 0.799,0.775 1.218,1.143 l -2.045,2.338"
   id="path565"
   inkscape:connector-curvature="0" />
		<path
   clip-path="url(#SVGID_8_)"
   fill="#FFFFFF"
   d="m 3.561,40.618 4.028,-1.043 c 0.198,0.303 0.403,0.602 0.615,0.895 L 5.826,43.9 5.178,43.068 7.09,40.607 7.084,40.599 4.085,41.48"
   id="path567"
   inkscape:connector-curvature="0" />
		<path
   clip-path="url(#SVGID_8_)"
   fill="#FFFFFF"
   d="m -0.092,28.651 0.99,-0.062 c 0.021,0.326 0.049,0.656 0.084,0.986 l 2.963,-0.299 c 0.032,0.299 0.072,0.617 0.115,0.914 l -2.953,0.416 c 0.045,0.318 0.097,0.639 0.154,0.955 l -0.985,0.178"
   id="path569"
   inkscape:connector-curvature="0" />
		<path
   clip-path="url(#SVGID_8_)"
   fill="#FFFFFF"
   d="m 0.02,23.667 0.172,0.014 c 0.094,-0.768 0.471,-1.399 1.168,-1.348 0.572,0.039 0.934,0.426 0.947,1.039 l 0.018,0.004 c 0.15,-0.176 0.283,-0.244 0.525,-0.381 0.378,-0.219 1.428,-0.582 1.428,-0.582 -0.087,0.353 -0.14,0.687 -0.19,1.033 0,0 -0.612,0.166 -0.897,0.272 -0.346,0.125 -0.671,0.33 -0.72,0.595 -0.011,0.053 -0.013,0.116 -0.016,0.149 l 1.493,0.146 c -0.03,0.305 -0.055,0.61 -0.073,0.916 L -0.14,25.292 M 0.856,23.87 C 0.84,24.015 0.837,24.159 0.82,24.317 l 0.955,0.096 C 1.787,24.28 1.806,24.122 1.821,23.983 1.85,23.745 1.802,23.38 1.415,23.337 1.1,23.299 0.9,23.47 0.856,23.87"
   id="path571"
   inkscape:connector-curvature="0" />
		<path
   clip-path="url(#SVGID_8_)"
   fill="#FFFFFF"
   d="m 1.813,16.791 4.302,0.118 c -0.153,0.318 -0.3,0.644 -0.44,0.968 L 4.769,17.836 c -0.171,0.416 -0.331,0.838 -0.478,1.266 l 0.707,0.57 C 4.89,19.996 4.79,20.325 4.697,20.657 L 1.438,17.78 m 0.988,-0.137 1.248,0.959 C 3.775,18.319 3.882,18.041 3.993,17.76 L 2.43,17.631 Z"
   id="path573"
   inkscape:connector-curvature="0" />
		<path
   clip-path="url(#SVGID_8_)"
   fill="#FFFFFF"
   d="M 8.445,7.143 11.353,8.116 9.674,6.057 10.465,5.434 12.837,8.625 C 12.566,8.834 12.299,9.049 12.038,9.27 l -2.806,-0.928 1.773,1.854 c -0.202,0.193 -0.4,0.386 -0.595,0.588 L 7.563,8.008"
   id="path575"
   inkscape:connector-curvature="0" />
		<path
   clip-path="url(#SVGID_8_)"
   fill="#FFFFFF"
   d="m 31.581,3.453 c 0.21,0.127 0.561,0.311 0.827,0.375 0.303,0.073 0.637,0.092 0.724,-0.261 C 33.216,3.221 32.785,3.082 32.379,2.844 31.972,2.606 31.583,2.27 31.76,1.545 c 0.199,-0.806 1.102,-0.982 1.811,-0.808 0.417,0.103 0.783,0.294 1.132,0.536 l -0.445,0.624 c -0.227,-0.152 -0.553,-0.301 -0.753,-0.35 -0.467,-0.114 -0.681,0.011 -0.739,0.25 -0.036,0.152 0.04,0.308 0.451,0.507 0.906,0.451 1.071,0.899 0.944,1.425 C 33.934,4.653 33.105,4.825 32.271,4.62 31.882,4.526 31.496,4.338 31.158,4.123 Z"
   id="path577"
   inkscape:connector-curvature="0" />
		<path
   clip-path="url(#SVGID_8_)"
   fill="#FFFFFF"
   d="m 39.505,2.99 c 1.16,0.608 1.413,1.78 0.894,2.772 -0.522,0.994 -1.631,1.449 -2.79,0.842 C 36.444,5.993 36.19,4.821 36.711,3.827 37.232,2.835 38.341,2.379 39.505,2.99 M 37.978,5.889 C 38.49,6.158 39.088,6.03 39.48,5.282 39.874,4.529 39.641,3.966 39.128,3.697 38.62,3.43 38.025,3.557 37.631,4.308 37.237,5.059 37.469,5.623 37.978,5.889"
   id="path579"
   inkscape:connector-curvature="0" />
		<path
   clip-path="url(#SVGID_8_)"
   fill="#FFFFFF"
   d="m 50.804,28.725 c -0.102,0.225 -0.239,0.594 -0.272,0.865 -0.037,0.311 -0.017,0.645 0.344,0.688 0.355,0.043 0.442,-0.402 0.627,-0.836 0.189,-0.43 0.474,-0.857 1.218,-0.768 0.823,0.098 1.106,0.975 1.019,1.699 -0.051,0.43 -0.2,0.812 -0.395,1.189 l -0.676,-0.367 c 0.125,-0.242 0.235,-0.584 0.258,-0.791 0.057,-0.475 -0.095,-0.674 -0.336,-0.701 -0.155,-0.02 -0.302,0.074 -0.45,0.51 -0.34,0.951 -0.764,1.17 -1.3,1.105 -0.945,-0.113 -1.216,-0.916 -1.114,-1.768 0.048,-0.398 0.185,-0.803 0.359,-1.162 z"
   id="path581"
   inkscape:connector-curvature="0" />
		<path
   clip-path="url(#SVGID_8_)"
   fill="#FFFFFF"
   d="M 4.975,36.465 C 4.96,36.219 4.911,35.824 4.813,35.57 4.702,35.277 4.527,34.992 4.189,35.121 3.855,35.248 3.986,35.683 4.021,36.152 4.058,36.623 4.002,37.132 3.304,37.398 2.528,37.695 1.871,37.05 1.61,36.371 1.456,35.969 1.407,35.559 1.407,35.133 l 0.768,0.014 c 0.003,0.271 0.065,0.623 0.139,0.818 0.17,0.447 0.396,0.553 0.625,0.463 C 3.085,36.373 3.17,36.223 3.1,35.77 2.956,34.768 3.23,34.379 3.736,34.186 c 0.89,-0.34 1.5,0.242 1.807,1.045 0.144,0.375 0.209,0.797 0.226,1.197 z"
   id="path583"
   inkscape:connector-curvature="0" />
		<path
   clip-path="url(#SVGID_8_)"
   fill="#FFFFFF"
   d="m 14.363,2.99 c 1.161,-0.61 2.269,-0.153 2.791,0.839 0.52,0.994 0.268,2.164 -0.893,2.775 C 15.096,7.213 13.988,6.758 13.467,5.764 12.945,4.772 13.199,3.601 14.363,2.99 m 1.521,2.905 C 16.397,5.624 16.63,5.061 16.236,4.311 15.841,3.561 15.245,3.432 14.733,3.703 c -0.509,0.266 -0.742,0.83 -0.348,1.581 0.393,0.748 0.989,0.877 1.499,0.611"
   id="path585"
   inkscape:connector-curvature="0" />
		<path
   clip-path="url(#SVGID_8_)"
   fill="#FFFFFF"
   d="M 20.133,3.984 C 20.378,3.997 20.774,3.997 21.039,3.932 21.343,3.856 21.647,3.718 21.561,3.364 21.474,3.019 21.027,3.095 20.557,3.075 20.086,3.054 19.586,2.936 19.405,2.212 19.205,1.405 19.925,0.831 20.633,0.653 21.05,0.55 21.463,0.55 21.884,0.602 l -0.103,0.76 c -0.273,-0.029 -0.629,-0.009 -0.829,0.04 -0.466,0.116 -0.598,0.327 -0.539,0.564 0.037,0.152 0.179,0.254 0.635,0.24 1.011,-0.022 1.365,0.297 1.496,0.823 0.23,0.925 -0.423,1.461 -1.256,1.669 -0.39,0.096 -0.818,0.109 -1.216,0.076 z"
   id="path587"
   inkscape:connector-curvature="0" />
		<path
   clip-path="url(#SVGID_8_)"
   fill="#FFFFFF"
   d="m 26.935,2.928 c 0.538,0 0.974,-0.435 0.974,-0.973 0,-0.537 -0.436,-0.972 -0.974,-0.972 -0.539,0 -0.974,0.435 -0.974,0.972 0,0.538 0.435,0.973 0.974,0.973"
   id="path589"
   inkscape:connector-curvature="0" />
		<path
   clip-path="url(#SVGID_8_)"
   fill="#FFFFFF"
   d="m 46.695,13.301 c 0.304,0.443 0.912,0.555 1.354,0.248 0.442,-0.305 0.551,-0.91 0.246,-1.352 -0.303,-0.443 -0.909,-0.552 -1.351,-0.248 -0.443,0.305 -0.554,0.911 -0.249,1.352"
   id="path591"
   inkscape:connector-curvature="0" />
		<path
   clip-path="url(#SVGID_8_)"
   fill="#FFFFFF"
   d="m 26.935,50.94 c 0.538,0 0.974,0.436 0.974,0.975 0,0.539 -0.436,0.973 -0.974,0.973 -0.539,0 -0.974,-0.434 -0.974,-0.973 0,-0.539 0.435,-0.975 0.974,-0.975"
   id="path593"
   inkscape:connector-curvature="0" />
		<path
   clip-path="url(#SVGID_8_)"
   fill="#FFFFFF"
   d="M 7.173,13.301 C 7.478,12.86 7.368,12.254 6.925,11.949 6.483,11.645 5.877,11.754 5.572,12.197 c -0.305,0.442 -0.194,1.047 0.248,1.352 0.442,0.307 1.048,0.195 1.353,-0.248"
   id="path595"
   inkscape:connector-curvature="0" />
	</g><path
   inkscape:connector-curvature="0"
   id="path599"
   d="m 30.628,30.625 c -0.304,0.311 -0.725,0.502 -1.192,0.502 h -0.981 c -0.549,0 -1.036,0.266 -1.34,0.676 h -0.361 c -0.304,-0.41 -0.792,-0.676 -1.341,-0.676 h -0.979 c -0.922,0 -1.668,-0.746 -1.668,-1.668 v -6.695"
   fill="#EC1A3B" /><path
   inkscape:connector-curvature="0"
   id="path601"
   d="m 22.766,22.764 h 8.338 v 6.695 c 0,0.457 -0.181,0.865 -0.476,1.166"
   fill="#FFFFFF" /><path
   inkscape:connector-curvature="0"
   id="path603"
   d="m 31.539,29.438 c 0,1.16 -0.943,2.1 -2.103,2.1 h -0.981 c -0.514,0 -0.956,0.314 -1.145,0.76 h -0.752 c -0.188,-0.445 -0.629,-0.76 -1.145,-0.76 h -0.979 c -1.162,0 -2.103,-0.939 -2.103,-2.1 v -7.109 h 9.208 z m -0.86,-6.246 h -7.488 v 6.246 c 0,0.682 0.556,1.24 1.243,1.24 h 0.979 c 0.598,0 1.126,0.25 1.508,0.648 h 0.027 c 0.383,-0.398 0.911,-0.648 1.507,-0.648 h 0.981 c 0.687,0 1.243,-0.559 1.243,-1.24 z"
   fill="#231F20" /><path
   style="fill:#fbfcfc;fill-opacity:1"
   inkscape:connector-curvature="0"
   id="path605"
   d="m 138.204,20.614 h 4.92 v 0.741 h -0.133 c -1.519,0 -1.748,0.665 -1.748,1.576 v 4.731 c 0,4.235 -3.077,5.034 -5.338,5.034 -3.419,0 -5.584,-1.48 -5.584,-4.389 v -5.661 c 0,-0.95 -0.267,-1.292 -1.331,-1.292 h -0.323 v -0.741 h 5.946 v 0.741 h -0.323 c -0.798,0 -1.348,0.361 -1.348,1.292 v 5.661 c 0,2.318 1.71,3.117 3.438,3.117 2.489,0 3.725,-1.408 3.725,-3.496 V 23.31 c 0,-1.348 -0.38,-1.956 -1.559,-1.956 h -0.342 z"
   fill="#231F20" /><path
   style="fill:#fbfcfc;fill-opacity:1"
   inkscape:connector-curvature="0"
   id="path607"
   d="m 152.625,30.702 c 0,0.932 0.342,1.121 1.083,1.121 v 0.607 h -4.482 v -0.607 c 0.778,-0.059 1.083,-0.59 1.083,-2.146 v -1.654 c 0,-1.519 -0.418,-2.107 -1.179,-2.107 -0.589,0 -1.216,0.284 -2.014,0.836 v 3.855 c 0,0.855 0.362,1.217 1.122,1.217 h 0.17 v 0.607 h -4.806 v -0.607 h 0.113 c 0.799,0 1.083,-0.344 1.083,-1.33 v -3.705 c 0,-0.418 -0.228,-0.664 -0.894,-0.855 l -0.398,-0.114 v -0.456 l 3.248,-1.101 h 0.361 v 1.69 c 1.387,-0.911 2.604,-1.482 3.515,-1.482 1.388,0 1.994,0.989 1.994,3.267 v 2.964 z"
   fill="#231F20" /><path
   style="fill:#fbfcfc;fill-opacity:1"
   inkscape:connector-curvature="0"
   id="path609"
   d="m 159.144,32.43 h -4.749 v -0.607 h 0.209 c 0.777,0 1.062,-0.344 1.062,-1.33 v -3.648 c 0,-0.494 -0.114,-0.626 -0.645,-0.817 l -0.627,-0.227 v -0.456 l 3.248,-1.083 h 0.342 v 6.364 c 0,0.779 0.323,1.197 1.159,1.197 V 32.43 Z M 158.25,21.241 c 0,0.76 -0.721,1.292 -1.501,1.292 -0.874,0 -1.519,-0.551 -1.519,-1.292 0,-0.684 0.721,-1.292 1.519,-1.292 0.874,0 1.501,0.57 1.501,1.292"
   fill="#231F20" /><path
   style="fill:#fbfcfc;fill-opacity:1"
   inkscape:connector-curvature="0"
   id="path611"
   d="m 159.354,24.679 h 4.825 v 0.608 h -0.665 c -0.399,0 -0.57,0.361 -0.247,1.064 l 1.689,3.78 1.483,-3.344 c 0.436,-0.987 0.209,-1.367 -1.121,-1.5 v -0.608 h 3.78 v 0.608 c -0.987,0.095 -1.235,0.342 -1.597,1.14 l -2.717,6.136 h -1.139 l -2.83,-6.098 c -0.362,-0.779 -0.627,-1.083 -1.463,-1.178 v -0.608 z"
   fill="#231F20" /><path
   style="fill:#fbfcfc;fill-opacity:1"
   inkscape:connector-curvature="0"
   id="path613"
   d="m 176.756,30.226 c -1.062,1.501 -2.602,2.413 -4.064,2.413 -2.071,0 -3.478,-1.596 -3.478,-3.895 0,-2.507 1.691,-4.274 4.066,-4.274 1.006,0 1.804,0.323 2.393,0.912 1.121,1.121 0.589,2.185 1.254,2.526 v 0.551 h -5.263 c 0.153,1.576 1.216,2.773 2.337,2.773 0.703,0 1.387,-0.398 2.319,-1.367 z m -2.451,-2.507 c -0.019,-1.463 -0.53,-2.356 -1.349,-2.356 -0.778,0 -1.48,1.006 -1.348,2.356 z"
   fill="#231F20" /><path
   style="fill:#fbfcfc;fill-opacity:1"
   inkscape:connector-curvature="0"
   id="path615"
   d="m 183.216,32.43 h -5.28 v -0.607 h 0.133 c 0.778,0 1.063,-0.342 1.063,-1.33 v -3.097 c 0,-0.855 -0.113,-1.045 -0.685,-1.273 l -0.512,-0.209 v -0.475 l 3.114,-1.178 h 0.399 v 2.128 h 0.039 c 0.702,-1.368 1.006,-1.919 1.651,-1.919 0.134,0 0.285,0.02 0.381,0.058 l 1.501,0.55 c -0.229,0.798 -0.533,1.482 -0.912,2.014 -0.589,-0.228 -1.292,-0.476 -1.538,-0.476 -0.381,0 -0.704,0.267 -1.122,0.856 v 3.077 c 0,0.912 0.286,1.273 1.272,1.273 h 0.494 v 0.608 z"
   fill="#231F20" /><path
   style="fill:#fbfcfc;fill-opacity:1"
   inkscape:connector-curvature="0"
   id="path617"
   d="m 186.22,30.189 h 0.607 c 0.323,1.063 1.159,1.634 1.977,1.634 0.53,0 0.986,-0.4 0.986,-0.874 0,-1.312 -3.57,-1.767 -3.57,-4.066 0,-1.444 1.196,-2.413 2.981,-2.413 0.722,0 1.33,0.115 2.128,0.4 l 0.038,2.032 h -0.608 c -0.342,-1.045 -0.969,-1.614 -1.784,-1.614 -0.494,0 -0.874,0.303 -0.874,0.721 0,1.558 3.741,1.615 3.741,4.217 0,1.405 -1.007,2.396 -2.47,2.396 -1.31,0 -1.747,-0.268 -2.013,-0.268 -0.114,0 -0.229,0.076 -0.38,0.247 h -0.551 z"
   fill="#231F20" /><path
   style="fill:#fbfcfc;fill-opacity:1"
   inkscape:connector-curvature="0"
   id="path619"
   d="m 197.58,32.43 h -4.749 v -0.607 h 0.209 c 0.779,0 1.064,-0.344 1.064,-1.33 v -3.648 c 0,-0.494 -0.115,-0.626 -0.646,-0.817 l -0.627,-0.227 v -0.456 l 3.248,-1.083 h 0.342 v 6.364 c 0,0.779 0.323,1.197 1.159,1.197 z m -0.892,-11.189 c 0,0.76 -0.723,1.292 -1.501,1.292 -0.874,0 -1.521,-0.551 -1.521,-1.292 0,-0.684 0.723,-1.292 1.521,-1.292 0.875,0 1.501,0.57 1.501,1.292"
   fill="#231F20" /><path
   style="fill:#fbfcfc;fill-opacity:1"
   inkscape:connector-curvature="0"
   id="path621"
   d="m 201.874,30.322 c 0,0.702 0.323,1.007 0.874,1.007 0.456,0 0.894,-0.285 1.444,-0.949 l 0.266,0.531 c -0.569,1.025 -1.71,1.729 -2.755,1.729 -1.292,0 -2.146,-0.722 -2.146,-2.355 v -4.56 h -1.008 v -0.494 c 1.141,-0.474 2.433,-1.861 2.773,-2.926 h 0.551 v 2.375 h 2.489 l -0.285,1.045 h -2.204 v 4.597 z"
   fill="#231F20" /><path
   style="fill:#fbfcfc;fill-opacity:1"
   inkscape:connector-curvature="0"
   id="path623"
   d="m 207.404,27.016 c -0.665,-1.368 -0.988,-1.729 -1.805,-1.729 v -0.608 h 4.845 v 0.608 c -0.989,0 -1.14,0.38 -0.78,1.14 l 1.577,3.268 1.444,-2.926 c 0.398,-0.817 0.151,-1.463 -0.988,-1.482 v -0.608 h 3.534 v 0.608 c -0.855,0.19 -1.103,0.419 -1.634,1.5 l -4.256,8.665 c -0.476,0.949 -1.063,1.405 -1.729,1.405 -0.684,0 -1.197,-0.456 -1.197,-1.083 0,-0.305 0.114,-0.627 0.285,-0.798 0.874,-0.874 1.881,0.304 2.888,-1.899 l 0.38,-0.836 z"
   fill="#231F20" />
</svg>
